…
Atleast I

bird_collisions <- readr::read_csv("https://raw.githubusercontent.com/rfordatascience/tidytuesday/master/data/2019/2019-04-30/bird_collisions.csv", col_types = cols())

mp_light <- readr::read_csv("https://raw.githubusercontent.com/rfordatascience/tidytuesday/master/data/2019/2019-04-30/mp_light.csv", col_types = cols())

EDA

bird_collisions %>% 
  count(genus, species, locality, family, flight_call, habitat, stratum, sort = T)

## Warning: package 'bindrcpp' was built under R version 3.5.1

## # A tibble: 171 x 8
##    genus       species  locality family  flight_call habitat stratum     n
##    <chr>       <chr>    <chr>    <chr>   <chr>       <chr>   <chr>   <int>
##  1 Zonotrichia albicol~ CHI      Passer~ Yes         Forest  Lower    6508
##  2 Melospiza   melodia  MP       Passer~ Yes         Edge    Lower    4802
##  3 Junco       hyemalis MP       Passer~ Yes         Edge    Lower    4284
##  4 Melospiza   georgia~ MP       Passer~ Yes         Open    Lower    4045
##  5 Zonotrichia albicol~ MP       Passer~ Yes         Forest  Lower    3625
##  6 Seiurus     aurocap~ CHI      Paruli~ Yes         Forest  Lower    3055
##  7 Certhia     america~ CHI      Certhi~ Yes         Forest  Upper    2405
##  8 Junco       hyemalis CHI      Passer~ Yes         Edge    Lower    2019
##  9 Catharus    guttatus CHI      Turdid~ Yes         Forest  Lower    1941
## 10 Catharus    guttatus MP       Turdid~ Yes         Forest  Lower    1788
## # ... with 161 more rows

bird_collisions %>% count(locality) %>% mutate(perc = n / sum(n))

## # A tibble: 2 x 3
##   locality     n  perc
##   <chr>    <int> <dbl>
## 1 CHI      33456 0.480
## 2 MP       36239 0.520

mp_light

## # A tibble: 3,067 x 2
##    date       light_score
##    <date>           <int>
##  1 2000-03-06           3
##  2 2000-03-08          15
##  3 2000-03-10           3
##  4 2000-03-31           3
##  5 2000-04-02          17
##  6 2000-04-14           4
##  7 2000-04-15           4
##  8 2000-04-30          14
##  9 2000-05-01          14
## 10 2000-05-03           3
## # ... with 3,057 more rows
…
